lab7/LAB7_code/dumpfile.vcd
$date
	Tue Nov  1 16:46:01 2022
$end
$version
	Icarus Verilog
$end
$timescale
	1ps
$end
$scope module testbench $end
$var wire 8 ! segout [7:0] $end
$var reg 1 " clk $end
$var reg 1 # rstn $end
$var reg 1 $ sw_n $end
$scope module top $end
$var wire 1 " clk $end
$var wire 1 # rstn $end
$var wire 1 $ sw_n $end
$var wire 8 % segout [7:0] $end
$var wire 4 & bin_data [3:0] $end
$scope module bcd_counter $end
$var wire 1 " clk $end
$var wire 4 ' data_out [3:0] $end
$var wire 1 $ i_toggle $end
$var wire 1 # rstn $end
$var reg 4 ( state [3:0] $end
$upscope $end
$scope module bin2seg $end
$var wire 4 ) bin_data [3:0] $end
$var reg 8 * seg_out [7:0] $end
$upscope $end
$upscope $end
$scope module your_display $end
$var wire 1 " clk $end
$var wire 8 + in [7:0] $end
$scope task DisplayLED $end
$var reg 8 , in [7:0] $end
$upscope $end
$upscope $end
$upscope $end
$enddefinitions $end
#0
$dumpvars
bx ,
b1 +
b1 *
b0 )
b0 (
b0 '
b0 &
b1 %
1$
0#
0"
b1 !
$end
#5000
b1 ,
1"
#10000
0"
0$
1#
#15000
b11001111 !
b11001111 %
b11001111 *
b11001111 +
b1 &
b1 '
b1 )
b1 (
1"
#20000
0"
#25000
b10010010 !
b10010010 %
b10010010 *
b10010010 +
b10 &
b10 '
b10 )
b10 (
b11001111 ,
1"
#30000
0"
#35000
b10000110 !
b10000110 %
b10000110 *
b10000110 +
b11 &
b11 '
b11 )
b11 (
b10010010 ,
1"
#40000
0"
#45000
b11001100 !
b11001100 %
b11001100 *
b11001100 +
b100 &
b100 '
b100 )
b100 (
b10000110 ,
1"
#50000
0"
#55000
b10100100 !
b10100100 %
b10100100 *
b10100100 +
b101 &
b101 '
b101 )
b101 (
b11001100 ,
1"
#60000
0"
#65000
b10100000 !
b10100000 %
b10100000 *
b10100000 +
b110 &
b110 '
b110 )
b110 (
b10100100 ,
1"
#70000
0"
#75000
b10001111 !
b10001111 %
b10001111 *
b10001111 +
b111 &
b111 '
b111 )
b111 (
b10100000 ,
1"
#80000
0"
#85000
b10000000 !
b10000000 %
b10000000 *
b10000000 +
b1000 &
b1000 '
b1000 )
b1000 (
b10001111 ,
1"
#90000
0"
#95000
b10000100 !
b10000100 %
b10000100 *
b10000100 +
b1001 &
b1001 '
b1001 )
b1001 (
b10000000 ,
1"
#100000
0"
#105000
b1 !
b1 %
b1 *
b1 +
b0 &
b0 '
b0 )
b0 (
b10000100 ,
1"
#110000
0"
#115000
b11001111 !
b11001111 %
b11001111 *
b11001111 +
b1 &
b1 '
b1 )
b1 (
b1 ,
1"
#120000
0"
#125000
b10010010 !
b10010010 %
b10010010 *
b10010010 +
b10 &
b10 '
b10 )
b10 (
b11001111 ,
1"
#130000
0"
1$
#135000
b10010010 ,
1"
#140000
b1 !
b1 %
b1 *
b1 +
b0 &
b0 '
b0 )
b0 (
0"
0#
#145000
b1 ,
1"
